{
  "local": {
    "username": "root",
    "password": "password",
    "database": "sustainable-meeting",
    "host": "localhost",
    "dialect": "mysql",
    "operatorsAliases": false
  },
  "development": {
    "username": "dev-sustainable",
    "password": "PoRwge4xZSxmJEla",
    "database": "dev-sustainable-meeting",
    "host": "sustainable-meeting-prod-instance-1.czsinchz0y1t.eu-west-1.rds.amazonaws.com",
    "dialect": "mysql",
    "operatorsAliases": false
  },
  "production": {
    "username": "sustainable-user",
    "password": "e1908DnwFs7HzXZJ",
    "database": "sustainable-meeting",
    "host": "sustainable-meeting-prod-instance-1.czsinchz0y1t.eu-west-1.rds.amazonaws.com",
    "dialect": "mysql",
    "operatorsAliases": false
  }
}
